…
    ## Rows: 822 Columns: 9
    ## ── Column specification ────────────────────────────────────────────────────────
    ## Delimiter: ","
    ## dbl  (8): prez_gop, gov_gop, sen_gop, rep_gop, prez_dem, gov_dem, sen_dem, r...
    ## date (1): mon
    ## 
    ## ℹ Use `spec()` to retrieve the full column specification for this data.
    ## ℹ Specify the column types or set `show_col_types = FALSE` to quiet this message.

``` r
# Remove the day variable
pols_df
```

    ## # A tibble: 1,644 × 9
    ##    year  month gov_gop sen_gop rep_gop gov_dem sen_dem rep_dem president
    ##    <chr> <chr>   <dbl>   <dbl>   <dbl>   <dbl>   <dbl>   <dbl> <chr>    
    ##  1 1947  jan        23      51     253      23      45     198 gop      
    ##  2 1947  jan        23      51     253      23      45     198 dem      
    ##  3 1947  feb        23      51     253      23      45     198 gop      
    ##  4 1947  feb        23      51     253      23      45     198 dem      
    ##  5 1947  mar        23      51     253      23      45     198 gop      
    ##  6 1947  mar        23      51     253      23      45     198 dem      
    ##  7 1947  apr        23      51     253      23      45     198 gop      
    ##  8 1947  apr        23      51     253      23      45     198 dem      
    ##  9 1947  may        23      51     253      23      45     198 gop      
    ## 10 1947  may        23      51     253      23      45     198 dem      
    ## # ℹ 1,634 more rows
…
    ## Rows: 787 Columns: 2
    ## ── Column specification ────────────────────────────────────────────────────────
    ## Delimiter: ","
    ## chr (1): date
    ## dbl (1): close
    ## 
    ## ℹ Use `spec()` to retrieve the full column specification for this data.
    ## ℹ Specify the column types or set `show_col_types = FALSE` to quiet this message.

``` r
# Remove prefix "/" in the column "year"
snp_df
```

    ## # A tibble: 787 × 3
    ##    year  month close
    ##    <chr> <chr> <dbl>
    ##  1 00    dec   1320.
    ##  2 00    nov   1315.
    ##  3 00    oct   1429.
    ##  4 01    dec   1148.
    ##  5 01    nov   1139.
    ##  6 01    oct   1060.
    ##  7 02    dec    880.
    ##  8 02    nov    936.
    ##  9 02    oct    886.
    ## 10 03    dec   1112.
    ## # ℹ 777 more rows
…
    ## Rows: 68 Columns: 13
    ## ── Column specification ────────────────────────────────────────────────────────
    ## Delimiter: ","
    ## dbl (13): Year, Jan, Feb, Mar, Apr, May, Jun, Jul, Aug, Sep, Oct, Nov, Dec
    ## 
    ## ℹ Use `spec()` to retrieve the full column specification for this data.
    ## ℹ Specify the column types or set `show_col_types = FALSE` to quiet this message.

``` r
# mutate year from dbl to character 
unemployment_df
```

    ## # A tibble: 816 × 3
    ##    year  month unemployment_num
    ##    <chr> <chr>            <dbl>
    ##  1 year  jan                3.4
    ##  2 year  feb                3.8
    ##  3 year  mar                4  
    ##  4 year  apr                3.9
    ##  5 year  may                3.5
    ##  6 year  jun                3.6
    ##  7 year  jul                3.6
    ##  8 year  aug                3.9
    ##  9 year  sep                3.8
    ## 10 year  oct                3.7
    ## # ℹ 806 more rows

#### Join Datasets

``` r
pols_snp = 
  left_join(pols_df,snp_df,by = "year","month")
pols_snp
```

    ## # A tibble: 1,644 × 11
    ##    year  month.x gov_gop sen_gop rep_gop gov_dem sen_dem rep_dem president
    ##    <chr> <chr>     <dbl>   <dbl>   <dbl>   <dbl>   <dbl>   <dbl> <chr>    
    ##  1 1947  jan          23      51     253      23      45     198 gop      
    ##  2 1947  jan          23      51     253      23      45     198 dem      
    ##  3 1947  feb          23      51     253      23      45     198 gop      
    ##  4 1947  feb          23      51     253      23      45     198 dem      
    ##  5 1947  mar          23      51     253      23      45     198 gop      
    ##  6 1947  mar          23      51     253      23      45     198 dem      
    ##  7 1947  apr          23      51     253      23      45     198 gop      
    ##  8 1947  apr          23      51     253      23      45     198 dem      
    ##  9 1947  may          23      51     253      23      45     198 gop      
    ## 10 1947  may          23      51     253      23      45     198 dem      
    ## # ℹ 1,634 more rows
    ## # ℹ 2 more variables: month.y <chr>, close <dbl>

``` r
# Join the datasets by merging snp into pols
pols_snp_unemployment=
  left_join(pols_snp,unemployment_df,by = "year","month")
pols_snp_unemployment
```

    ## # A tibble: 1,644 × 13
    ##    year  month.x gov_gop sen_gop rep_gop gov_dem sen_dem rep_dem president
    ##    <chr> <chr>     <dbl>   <dbl>   <dbl>   <dbl>   <dbl>   <dbl> <chr>    
    ##  1 1947  jan          23      51     253      23      45     198 gop      
    ##  2 1947  jan          23      51     253      23      45     198 dem      
    ##  3 1947  feb          23      51     253      23      45     198 gop      
    ##  4 1947  feb          23      51     253      23      45     198 dem      
    ##  5 1947  mar          23      51     253      23      45     198 gop      
    ##  6 1947  mar          23      51     253      23      45     198 dem      
    ##  7 1947  apr          23      51     253      23      45     198 gop      
    ##  8 1947  apr          23      51     253      23      45     198 dem      
    ##  9 1947  may          23      51     253      23      45     198 gop      
    ## 10 1947  may          23      51     253      23      45     198 dem      
    ## # ℹ 1,634 more rows
    ## # ℹ 4 more variables: month.y <chr>, close <dbl>, month <chr>,
    ## #   unemployment_num <dbl>
…
